ApplicationMgr    SUCCESS
====================================================================================================================================
====================================================================================================================================
ApplicationMgr       INFO Application Manager Configured successfully
LHCb::Det::LbDD...   INFO Field map location: DBASE/FieldMap/vXrYpZ/cdf
All                  INFO Member list: Gaudi::Hive::FetchDataFromFile/FetchDSTData, LHCb::UnpackRawEvent/UnpackODIN, createODIN/ODINDecode, LHCb::Det::LbDD4hep::IOVProducer/ReserveIOVDD4hep, LHCb::UnpackRawEvent/UnpackRich, Rich::Future::RawBankDecoder/RichDecode, Rich::Future::SmartIDClustering/RichClustering, Rich::Future::Rec::SIMDSummaryPixels/SIMDPixels, Rich::Future::Rec::Moni::DetectorHits/RichRecPixelQC
RndmGenSvc.Engine    INFO Generator engine type:CLHEP::RanluxEngine
RndmGenSvc.Engine    INFO Current Seed:1234567 Luxury:3
RndmGenSvc           INFO Using Random engine:HepRndm::Engine<CLHEP::RanluxEngine>
ToolSvc.RichPar...   INFO Particle types considered = [electron, muon, pion, kaon, proton, deuteron, below_threshold]
IODataManager       ERROR Referring to existing dataset mdf:root://eoslhcb.cern.ch//eos/lhcb/hlt2/LHCb/0000248711/Run_0000248711_HLT20840_20221011-113809-426.mdf by its physical name.
IODataManager       ERROR You may not be able to navigate back to the input file -- processing continues
ApplicationMgr       INFO Application Manager Initialized successfully
ApplicationMgr       INFO Application Manager Started successfully
EventSelector.D...   INFO Compression:0 Checksum:0
EventSelector     SUCCESS Reading Event record 1. Record number within stream 1: 1
EventPersistenc...   INFO Added successfully Conversion service:RootCnvSvc
EventPersistenc...   INFO Added successfully Conversion service:LHCb::RawDataCnvSvc
DeMagnetConditi...   INFO Loading mag field from DBASE/FieldMap/vXrYpZ/cdf
MagneticFieldEx...   INFO Scale factor: 0.999983
EventSelector     SUCCESS Reading Event record 11. Record number within stream 1: 11
EventSelector     SUCCESS Reading Event record 21. Record number within stream 1: 21
EventSelector     SUCCESS Reading Event record 31. Record number within stream 1: 31
EventSelector     SUCCESS Reading Event record 41. Record number within stream 1: 41
EventSelector     SUCCESS Reading Event record 51. Record number within stream 1: 51
EventSelector     SUCCESS Reading Event record 61. Record number within stream 1: 61
EventSelector     SUCCESS Reading Event record 71. Record number within stream 1: 71
EventSelector     SUCCESS Reading Event record 81. Record number within stream 1: 81
EventSelector     SUCCESS Reading Event record 91. Record number within stream 1: 91
ApplicationMgr       INFO Application Manager Stopped successfully
EventLoopMgr         INFO Histograms converted successfully according to request.
ApplicationMgr       INFO Application Manager Finalized successfully
ApplicationMgr       INFO Application Manager Terminated successfully
RichClustering       INFO Number of counters : 1
 |    Counter                                      |     #     |    sum     | mean/eff^* | rms/err^*  |     min     |     max     |
 | "No DePD object found for decoded channel ID"   |         4 |
RichRecPixelQC    SUCCESS 1D histograms in directory "RICH/RichRecPixelQC" : 22
 | ID                                            |   Title                                                                     |    #    |     Mean   |    RMS     |  Skewness  |  Kurtosis  |
 | Rich1/bottom/pixXGlo                          | "Rich1 bottom Global X hits"                                                |  48590  |    -7.1318 | 237.48     |   0.070755 |     0.1685 |
 | Rich1/bottom/pixYGlo                          | "Rich1 bottom Global Y hits"                                                |  48590  |    -1361.6 | 67.406     |   -0.90512 |     0.4072 |
 | Rich1/nActivePDs                              | "Rich1 # Active PDs (nHits>0)"                                              |   100   |     365.67 | 270.05     |    0.74899 |   -0.20447 |
 | Rich1/nTotalPixs                              | "Rich1 Overall occupancy (nHits>0)"                                         |   100   |     971.81 | 998.74     |     1.4936 |     2.0305 |
 | Rich1/nTotalPixsPerInnerPD                    | "Rich1 Average overall Inner PD occupancy (nHits>0)"                        |  36567  |     2.6576 | 2.8134     |     2.9641 |     12.433 |
 | Rich1/nTotalPixsPerOuterPD                    | "Rich1 Average overall Outer PD occupancy (nHits>0)"                        |    0    |          0 | 0          |          0 |          0 |
 | Rich1/nTotalPixsPerPD                         | "Rich1 Average overall PD occupancy (nHits>0)"                              |  36567  |     2.6576 | 2.8134     |     2.9641 |     12.433 |
 | Rich1/pixXLoc                                 | "Rich1 Local X hits"                                                        |  97181  | -0.0027777 | 236.43     |  -0.020509 |    0.14495 |
 | Rich1/pixYLoc                                 | "Rich1 Local Y hits"                                                        |  97181  |    0.10756 | 258.98     |  0.0053737 |   -0.76547 |
 | Rich1/top/pixXGlo                             | "Rich1 top Global X hits"                                                   |  48591  |     7.1261 | 235.17     |   -0.11369 |    0.20041 |
 | Rich1/top/pixYGlo                             | "Rich1 top Global Y hits"                                                   |  48591  |     1361.7 | 68.186     |     0.8437 |    0.35607 |
 | Rich2/ASide-left/pixXGlo                      | "Rich2 ASide-left Global X hits"                                            |  54761  |     3900.5 | 85.513     |   -0.10252 |   -0.97041 |
 | Rich2/ASide-left/pixYGlo                      | "Rich2 ASide-left Global Y hits"                                            |  54761  |      10.02 | 306.8      |   0.021311 |   -0.41272 |
 | Rich2/CSide-right/pixXGlo                     | "Rich2 CSide-right Global X hits"                                           |  54309  |    -3902.2 | 85.525     |    0.10848 |   -0.94471 |
 | Rich2/CSide-right/pixYGlo                     | "Rich2 CSide-right Global Y hits"                                           |  54309  |     12.315 | 313.16     |   0.002616 |   -0.52723 |
 | Rich2/nActivePDs                              | "Rich2 # Active PDs (nHits>0)"                                              |   100   |     486.51 | 301.65     |   0.062544 |    -1.2409 |
 | Rich2/nTotalPixs                              | "Rich2 Overall occupancy (nHits>0)"                                         |   100   |     1090.7 | 1016.8     |     1.5566 |     3.4929 |
 | Rich2/nTotalPixsPerInnerPD                    | "Rich2 Average overall Inner PD occupancy (nHits>0)"                        |  28318  |      2.091 | 1.6389     |     2.5353 |     9.9284 |
 | Rich2/nTotalPixsPerOuterPD                    | "Rich2 Average overall Outer PD occupancy (nHits>0)"                        |  20333  |     2.4521 | 2.0899     |     2.6999 |     11.299 |
 | Rich2/nTotalPixsPerPD                         | "Rich2 Average overall PD occupancy (nHits>0)"                              |  48651  |     2.2419 | 1.8495     |     2.7253 |     11.848 |
 | Rich2/pixXLoc                                 | "Rich2 Local X hits"                                                        |  109070 |     1.5013 | 454.94     |    -0.0062 |     -1.488 |
 | Rich2/pixYLoc                                 | "Rich2 Local Y hits"                                                        |  109070 |     11.101 | 309.99     |   0.016165 |   -0.47687 |
RichRecPixelQC    SUCCESS 1D profile histograms in directory "RICH/RichRecPixelQC" : 8
 | ID                                            |   Title                                                                     |    #    |     Mean   |    RMS     |  Skewness  |  Kurtosis  |
 | Rich1/hitDensityX                             | "Rich1 <#hits/mm^2> (X)"                                                    |  250000 |          0 | 375.2      | -0.0041569 |    -2.5111 |
 | Rich1/hitDensityY                             | "Rich1 <#hits/mm^2> (Y)"                                                    |  250000 |-9.4739e-19 | 376.81     |-0.00093535 |     -2.498 |
 | Rich1/pdOccXLoc                               | "Rich1 PD Average Occupancy (X)"                                            |  250000 |          0 | 375.2      | -0.0041569 |    -2.5111 |
 | Rich1/pdOccYLoc                               | "Rich1 PD Average Occupancy (Y)"                                            |  250000 |          0 | 392.52     |-0.00079943 |    -2.5821 |
 | Rich2/hitDensityX                             | "Rich2 <#hits/mm^2> (X)"                                                    |  250000 |          0 | 461.79     |  0.0089366 |    -1.5878 |
 | Rich2/hitDensityY                             | "Rich2 <#hits/mm^2> (Y)"                                                    |  250000 |          0 | 432.93     |   0.035165 |    -2.5605 |
 | Rich2/pdOccXLoc                               | "Rich2 PD Average Occupancy (X)"                                            |  250000 |          0 | 461.79     |  -0.011424 |     -1.554 |
 | Rich2/pdOccYLoc                               | "Rich2 PD Average Occupancy (Y)"                                            |  250000 |          0 | 432.93     |    0.06795 |    -2.1159 |
